15- Factors
…
Para acessar os nveis basta usar levels()

levels(y1)

##  [1] "Jan" "Fev" "Mar" "Abr" "Mai" "Jun" "Jul" "Ago" "Set" "Out" "Nov" "Dez"

15.3 General Social Survey

Pelo resto do cpitulo vamos focar no forcats:gss_cat.  uma amostra de dados do General Social Survey. Uma enquete conduzida nos EUA para que a populao informe diversas coisas sobre a sociedade e si mesmos. Parecido com o censo mas no  a mesma coisa.

gss_cat

## # A tibble: 21,483 x 9
##     year marital     age race  rincome    partyid     relig     denom    tvhours
##    <int> <fct>     <int> <fct> <fct>      <fct>       <fct>     <fct>      <int>
##  1  2000 Never ma~    26 White $8000 to ~ Ind,near r~ Protesta~ Souther~      12
##  2  2000 Divorced     48 White $8000 to ~ Not str re~ Protesta~ Baptist~      NA
##  3  2000 Widowed      67 White Not appli~ Independent Protesta~ No deno~       2
##  4  2000 Never ma~    39 White Not appli~ Ind,near r~ Orthodox~ Not app~       4
##  5  2000 Divorced     25 White Not appli~ Not str de~ None      Not app~       1
##  6  2000 Married      25 White $20000 - ~ Strong dem~ Protesta~ Souther~      NA
##  7  2000 Never ma~    36 White $25000 or~ Not str re~ Christian Not app~       3
##  8  2000 Divorced     44 White $7000 to ~ Ind,near d~ Protesta~ Luthera~      NA
##  9  2000 Married      44 White $25000 or~ Not str de~ Protesta~ Other          0
## 10  2000 Married      47 White $25000 or~ Strong rep~ Protesta~ Souther~       3
## # ... with 21,473 more rows
…
## # A tibble: 1 x 2
##   partyid         n
##   <fct>       <int>
## 1 Independent  4119

Which relig does denom (denomination) apply to? How can you find out with a table? How can you find out with a visualisation?

Table:

gss_cat %>% group_by(relig,denom) %>% summarise(n())

## `summarise()` has grouped output by 'relig'. You can override using the `.groups` argument.

## # A tibble: 47 x 3
## # Groups:   relig [15]
##    relig                   denom           `n()`
##    <fct>                   <fct>           <int>
##  1 No answer               No answer          93
##  2 Don't know              Not applicable     15
##  3 Inter-nondenominational Not applicable    109
##  4 Native american         Not applicable     23
##  5 Christian               No answer           2
##  6 Christian               Don't know         11
##  7 Christian               No denomination   452
##  8 Christian               Not applicable    224
##  9 Orthodox-christian      Not applicable     95
## 10 Moslem/islam            Not applicable    104
## # ... with 37 more rows
…
