16- Dates and Times
…
ymd_hms("2017-01-31 20:11:59")

## [1] "2017-01-31 20:11:59 UTC"

mdy_hm("01/31/2017 08:01")

## [1] "2017-01-31 08:01:00 UTC"

16.2.2 From individuals components

Ao nves de uma string nica existem situaes que teremos os elementos espalhados em vrias colunas. Temos isso em flights.

flights %>% select(year,month,day,hour,minute)

## # A tibble: 336,776 x 5
##     year month   day  hour minute
##    <int> <int> <int> <dbl>  <dbl>
##  1  2013     1     1     5     15
##  2  2013     1     1     5     29
##  3  2013     1     1     5     40
##  4  2013     1     1     5     45
##  5  2013     1     1     6      0
##  6  2013     1     1     5     58
##  7  2013     1     1     6      0
##  8  2013     1     1     6      0
##  9  2013     1     1     6      0
## 10  2013     1     1     6      0
## # ... with 336,766 more rows

Para criar dates e datetimes quando esto dessa maneira com make_date() e make_datetime():

flights %>% select(year,month,day,hour,minute) %>% mutate(data = make_date(year,month,day))

## # A tibble: 336,776 x 6
##     year month   day  hour minute data      
##    <int> <int> <int> <dbl>  <dbl> <date>    
##  1  2013     1     1     5     15 2013-01-01
##  2  2013     1     1     5     29 2013-01-01
##  3  2013     1     1     5     40 2013-01-01
##  4  2013     1     1     5     45 2013-01-01
##  5  2013     1     1     6      0 2013-01-01
##  6  2013     1     1     5     58 2013-01-01
##  7  2013     1     1     6      0 2013-01-01
##  8  2013     1     1     6      0 2013-01-01
##  9  2013     1     1     6      0 2013-01-01
## 10  2013     1     1     6      0 2013-01-01
## # ... with 336,766 more rows

flights %>% select(year,month,day,hour,minute) %>% mutate(data = make_datetime(year,month,day,hour,minute))

## # A tibble: 336,776 x 6
##     year month   day  hour minute data               
##    <int> <int> <int> <dbl>  <dbl> <dttm>             
##  1  2013     1     1     5     15 2013-01-01 05:15:00
##  2  2013     1     1     5     29 2013-01-01 05:29:00
##  3  2013     1     1     5     40 2013-01-01 05:40:00
##  4  2013     1     1     5     45 2013-01-01 05:45:00
##  5  2013     1     1     6      0 2013-01-01 06:00:00
##  6  2013     1     1     5     58 2013-01-01 05:58:00
##  7  2013     1     1     6      0 2013-01-01 06:00:00
##  8  2013     1     1     6      0 2013-01-01 06:00:00
##  9  2013     1     1     6      0 2013-01-01 06:00:00
## 10  2013     1     1     6      0 2013-01-01 06:00:00
## # ... with 336,766 more rows
…
