7 Exploratory Data Analysis
…
diamonds %>% filter(z<2 | z> 8) %>% select(price,z,y,x) %>% arrange(z)

## # A tibble: 25 x 4
##    price     z     y     x
##    <int> <dbl> <dbl> <dbl>
##  1  3142     0  6.48  6.55
##  2  3167     0  6.6   6.66
##  3  3696     0  6.47  6.5 
##  4  3837     0  6.47  6.5 
##  5  4731     0  7.04  7.15
##  6  4954     0  6.62  0   
##  7  5139     0  0     0   
##  8  5564     0  6.83  6.88
##  9  6381     0  0     0   
## 10 12631     0  8.45  8.49
## # ... with 15 more rows
…
A diferena  que o coord cartesian no remove os dados e cria o histograma depois, ele apenas da zoom e mantem a altura relativa a outras barras que existem, o xlim cria o histograma considerando apenas os dados naquele intervalo existentes, dessa maneira os eixos so reajustados

7.4 Missing Values

Quando valores no usuais so enconctrados, temos duas opes se quisermos continuar para a anlise:

Podemos remover todas as linhas que tem contem esses valores:

diamonds %>% filter(between(y,3,20))

## # A tibble: 53,931 x 10
##    carat cut       color clarity depth table price     x     y     z
##    <dbl> <ord>     <ord> <ord>   <dbl> <dbl> <int> <dbl> <dbl> <dbl>
##  1  0.23 Ideal     E     SI2      61.5    55   326  3.95  3.98  2.43
##  2  0.21 Premium   E     SI1      59.8    61   326  3.89  3.84  2.31
##  3  0.23 Good      E     VS1      56.9    65   327  4.05  4.07  2.31
##  4  0.29 Premium   I     VS2      62.4    58   334  4.2   4.23  2.63
##  5  0.31 Good      J     SI2      63.3    58   335  4.34  4.35  2.75
##  6  0.24 Very Good J     VVS2     62.8    57   336  3.94  3.96  2.48
##  7  0.24 Very Good I     VVS1     62.3    57   336  3.95  3.98  2.47
##  8  0.26 Very Good H     SI1      61.9    55   337  4.07  4.11  2.53
##  9  0.22 Fair      E     VS2      65.1    61   337  3.87  3.78  2.49
## 10  0.23 Very Good H     VS1      59.4    61   338  4     4.05  2.39
## # ... with 53,921 more rows
…
O tamanho de cada crculo indica a quantidade de observaes. Outra maneira  com o uso do dplyr.

(conta <- mutate(diamonds,color=fct_rev(color)) %>% count(color,cut))

## # A tibble: 35 x 3
##    color cut           n
##    <ord> <ord>     <int>
##  1 J     Fair        119
##  2 J     Good        307
##  3 J     Very Good   678
##  4 J     Premium     808
##  5 J     Ideal       896
##  6 I     Fair        175
##  7 I     Good        522
##  8 I     Very Good  1204
##  9 I     Premium    1428
## 10 I     Ideal      2093
## # ... with 25 more rows
…
Use geom_tile e o dplyr para analisar como o delay medio dos voos varia por destino e mes.

(atr <- flights %>% group_by(dest,month) %>% summarise(quant = n(),media = mean(dep_delay,na.rm = T)))

## `summarise()` has grouped output by 'dest'. You can override using the `.groups` argument.

## # A tibble: 1,113 x 4
## # Groups:   dest [105]
##    dest  month quant media
##    <chr> <int> <int> <dbl>
##  1 ABQ       4     9  2.67
##  2 ABQ       5    31 11.6 
##  3 ABQ       6    30 15.5 
##  4 ABQ       7    31 24.3 
##  5 ABQ       8    31 15.9 
##  6 ABQ       9    30 19.2 
##  7 ABQ      10    31  4.32
##  8 ABQ      11    30 -2.2 
##  9 ABQ      12    31 24.3 
## 10 ACK       5    21  9.05
## # ... with 1,103 more rows
…
O grfico ficar extreamente poludo e difcil de interpretar. Um dos problemas  a grande quantidade de destinos, podemos escolher apenas destinos que acontecem muitos voos. Segundo poderiamos remover locais que no existem meses que no ocorrem voos.

(atr2 <- atr %>% filter(quant>100) %>% group_by(dest) %>% filter(n() == 12)) #Mantendo apenas os destinos que tiveram mais de 100 voos todo ms

## # A tibble: 564 x 4
## # Groups:   dest [47]
##    dest  month quant media
##    <chr> <int> <int> <dbl>
##  1 ATL       1  1396  4.47
##  2 ATL       2  1267  5.96
##  3 ATL       3  1448 11.2 
##  4 ATL       4  1490  9.52
##  5 ATL       5  1499 12.0 
##  6 ATL       6  1438 25.8 
##  7 ATL       7  1511 28.6 
##  8 ATL       8  1507 14.5 
##  9 ATL       9  1364  8.58
## 10 ATL      10  1448  5.58
## # ... with 554 more rows
…
